…
To make plotting easier, i’ll pivot (‘melt’) the dataframe from wide to
long format so I can group by charnging level:

``` r
df_opened_level_long <- df_opened_level %>% 
  tidyr::pivot_longer(cols=c('n_DC','n_L2','n_L1'), names_to = "Level", names_prefix = "n_", values_to = "n_opened")

df_opened_level_long
```

    ## # A tibble: 45 × 3
    ##    open_year Level n_opened
    ##        <dbl> <chr>    <int>
    ##  1      2010 DC           1
    ##  2      2010 L2          21
    ##  3      2010 L1          18
    ##  4      2011 DC           1
    ##  5      2011 L2          25
    ##  6      2011 L1           0
    ##  7      2012 DC           9
    ##  8      2012 L2          43
    ##  9      2012 L1           0
    ## 10      2013 DC          20
    ## # ℹ 35 more rows
…
